E:\_work\Java(Minecraft)\ArenaTest\src\main\java\me\swaggy\arenatest\Listeners\PlayerListener.java
E:\_work\Java(Minecraft)\ArenaTest\src\main\java\me\swaggy\arenatest\Utils\RandomItem.java
E:\_work\Java(Minecraft)\ArenaTest\src\main\java\me\swaggy\arenatest\Arena.java
E:\_work\Java(Minecraft)\ArenaTest\src\main\java\me\swaggy\arenatest\Commands\PlayCommand.java
E:\_work\Java(Minecraft)\ArenaTest\src\main\java\me\swaggy\arenatest\ArenaTest.java
E:\_work\Java(Minecraft)\ArenaTest\src\main\java\me\swaggy\arenatest\Commands\RestCommand.java
